01_Data_Setup
…
growth83_86_data <- addWGSR(data = growth83_86_data, sex = "sexchild", firstPart= "weightak_kg", secondPart = "age_at_weigh_days", index = "wfa")

## ================================================================================

growth83_86_data <- addWGSR(data = growth83_86_data, sex = "sexchild", firstPart = "heightcm", secondPart = "age_at_weigh_days", index = "hfa")

## ================================================================================

growth83_86_data

## # A tibble: 3,031 x 22
##    basebrgy hhldnubi basewman sexchild outcome daybirth mnthbrth yearbirt
##       <dbl>    <dbl>    <dbl>    <dbl>   <dbl>    <dbl>    <dbl>    <dbl>
##  1        1       12       12        1       1        3        6       83
##  2        1       14       14        2       1       23        5       83
##  3        1       21       21        2       1       13        5       83
##  4        1       23       23        1       1       19        5       83
##  5        1       25       25        2       1        5        5       83
##  6        1       26       26        2       1       20        6       83
##  7        1       27       27        2       1       16        5       83
##  8        1       30       30        1       1        3        5       83
##  9        1       32       32        2       1       20        5       83
## 10        1       33       33        2       1        7        5       83
## #  with 3,021 more rows, and 14 more variables: dayintw <dbl>, mothintw <dbl>,
## #   yearintw <dbl>, bbweight <dbl>, weight1 <dbl>, weightak <dbl>,
## #   weightgm <dbl>, heightcm <dbl>, weightak_kg <dbl>, birthdate <date>,
## #   intwdate <date>, age_at_weigh_days <dbl>, wfaz <dbl>, hfaz <dbl>
…
